<svg xmlns="http://www.w3.org/2000/svg" width="6" height="6" viewBox="0 0 6 6">
    <defs>
        <style>
            .cls-1{fill:none}.cls-2{fill:url(#linear-gradient)}
        </style>
        <linearGradient id="linear-gradient" x2="1" y2="1" gradientUnits="objectBoundingBox">
            <stop offset="0" stop-color="#2b78fe"/>
            <stop offset="1" stop-color="#1270e3"/>
        </linearGradient>
    </defs>
    <g id="icon_check">
        <path id="Rectángulo_39" d="M0 0h6v6H0z" class="cls-1" data-name="Rectángulo 39"/>
        <path id="Check" d="M4.376 21.519l-1.848-1.984a.29.29 0 0 1 0-.4l.372-.4a.253.253 0 0 1 .356-.016s.012.008.016.016l1.288 1.4 2.872-3.1a.253.253 0 0 1 .356-.016s.012.008.016.016l.372.4a.29.29 0 0 1 0 .4l-3.428 3.684a.253.253 0 0 1-.356.016l-.016-.016" class="cls-2" transform="translate(-2.352 -16.279)"/>
    </g>
</svg>
