<svg xmlns="http://www.w3.org/2000/svg" id="icon_gps_fixed" width="40" height="40" viewBox="0 0 40 40">
    <defs>
        <style>
            .cls-1{fill:none}.cls-2{fill:#42474b}
        </style>
    </defs>
    <path id="Frame" d="M0 0h40v40H0z" class="cls-1"/>
    <path id="Path" d="M28.864 21.833a7.031 7.031 0 1 1-7.031-7.03 7.029 7.029 0 0 1 7.031 7.03zm12.3-1.757v3.515h-3.618a15.808 15.808 0 0 1-13.955 13.955v3.621h-3.515v-3.621A15.808 15.808 0 0 1 6.121 23.591H2.5v-3.515h3.621A15.808 15.808 0 0 1 20.076 6.121V2.5h3.515v3.621a15.808 15.808 0 0 1 13.955 13.955zm-7.03 1.757a12.3 12.3 0 1 0-12.3 12.3h.018a12.294 12.294 0 0 0 12.285-12.3z" class="cls-2" transform="translate(-1.833 -1.833)"/>
</svg>
