<svg xmlns="http://www.w3.org/2000/svg" id="icon_edit" width="20" height="20" viewBox="0 0 20 20">
    <defs>
        <style>
            .cls-1{fill:#fff}.cls-2{fill:none}
        </style>
    </defs>
    <path id="Trazado_1291" d="M20.34 14.945a.478.478 0 0 0-.48.48V19.7a1.443 1.443 0 0 1-1.44 1.44H4.913a1.443 1.443 0 0 1-1.44-1.44V7.158a1.443 1.443 0 0 1 1.44-1.44h4.28a.48.48 0 1 0 0-.96h-4.28A2.421 2.421 0 0 0 2.5 7.172v12.546a2.421 2.421 0 0 0 2.413 2.413H18.42a2.421 2.421 0 0 0 2.413-2.413v-4.293a.5.5 0 0 0-.493-.48zM20.633 3.5a2.181 2.181 0 0 0-3.067 0L8.98 12.1a.426.426 0 0 0-.12.213L7.727 16.4a.491.491 0 0 0 .12.467.469.469 0 0 0 .467.12l4.08-1.133a.676.676 0 0 0 .213-.12l8.587-8.587a2.181 2.181 0 0 0 0-3.067zm-10.6 8.907l7.027-7.022 2.267 2.267-7.027 7.026zm-.453.907l1.813 1.813-2.507.693zm10.933-6.862l-.507.507-2.266-2.267.507-.507a1.215 1.215 0 0 1 1.707 0l.56.56a1.191 1.191 0 0 1-.001 1.707z" class="cls-1" data-name="Trazado 1291" transform="translate(-2.167 -2.492)"/>
    <path id="Rectángulo_49" d="M0 0h20v20H0z" class="cls-2" data-name="Rectángulo 49"/>
</svg>
