<svg id="icon_mark_start_ride" xmlns="http://www.w3.org/2000/svg" xmlns:xlink="http://www.w3.org/1999/xlink" width="48" height="48" viewBox="0 0 48 48">
  <defs>
    <style>
      .cls-1 {
        fill: none;
      }

      .cls-2 {
        fill: url(#linear-gradient);
      }

      .cls-3 {
        fill: #42474b;
      }

      .cls-4 {
        fill: #fdfdfd;
      }
    </style>
    <linearGradient id="linear-gradient" x1="0.5" x2="0.5" y2="1" gradientUnits="objectBoundingBox">
      <stop offset="0" stop-color="#6207ef"/>
      <stop offset="1" stop-color="#00baff"/>
    </linearGradient>
  </defs>
  <rect id="Frame" class="cls-1" width="48" height="48"/>
  <path id="Mark" class="cls-2" d="M33.72,2.8A18.724,18.724,0,0,1,52.44,21.52h0A18.732,18.732,0,0,1,40.632,39.28c-6.432,2.464-6.912,5.44-6.912,9.856C26.328,38.768,15,32.88,15,21.488A18.717,18.717,0,0,1,33.72,2.8Z" transform="translate(-10.2 -1.904)"/>
  <circle id="Background" class="cls-3" cx="15.904" cy="15.904" r="15.904" transform="translate(7.68 3.776)"/>
  <g id="Grupo_937" data-name="Grupo 937" transform="translate(13.984 10.08)">
    <path id="Trazado_4066" data-name="Trazado 4066" class="cls-4" d="M73.3,50.727l-6.816-4.64a.379.379,0,0,0-.32-.032.336.336,0,0,0-.16.288v9.28a.336.336,0,0,0,.16.288.24.24,0,0,0,.16.032.244.244,0,0,0,.16-.064l6.816-4.64a.291.291,0,0,0,.128-.256A.286.286,0,0,0,73.3,50.727Z" transform="translate(-58.864 -41.383)"/>
    <rect id="Rectángulo_286" data-name="Rectángulo 286" class="cls-1" width="19.2" height="19.2"/>
    <g id="Grupo_936" data-name="Grupo 936" transform="translate(0.672 0.672)">
      <path id="Trazado_4067" data-name="Trazado 4067" class="cls-4" d="M54.728,51.456a8.928,8.928,0,1,1,8.928-8.928A8.932,8.932,0,0,1,54.728,51.456Zm0-17.344A8.384,8.384,0,1,0,63.112,42.5,8.392,8.392,0,0,0,54.728,34.112Z" transform="translate(-45.8 -33.6)"/>
    </g>
  </g>
</svg>
