<svg xmlns="http://www.w3.org/2000/svg" width="76" height="76" viewBox="0 0 76 76">
    <defs>
        <style>
            .cls-1{fill:none}.cls-2{fill:url(#linear-gradient)}.cls-3{fill:#42474b}.cls-4{fill:#fdfdfd}
        </style>
        <linearGradient id="linear-gradient" x1=".5" x2=".5" y2="1" gradientUnits="objectBoundingBox">
            <stop offset="0" stop-color="#6207ef"/>
            <stop offset="1" stop-color="#00baff"/>
        </linearGradient>
    </defs>
    <g id="mark_scooter_inuse">
        <path id="Frame" d="M0 0h76v76H0z" class="cls-1"/>
        <path id="Mark" d="M46.14 2.5a29.656 29.656 0 0 1 29.64 29.691c0 12.515-7.043 23.459-18.7 28.12-10.18 3.901-10.94 8.613-10.94 15.605C34.436 59.5 16.5 50.127 16.5 32.089A29.635 29.635 0 0 1 46.14 2.5z" class="cls-2" transform="translate(-8.14 -1.233)"/>
        <circle id="Background" cx="25.181" cy="25.181" r="25.181" class="cls-3" transform="translate(12.92 5.827)"/>
        <g id="icon_scooter" transform="translate(20.368 13.325)">
            <path id="Frame-2" d="M0 0h35.467v35.467H0z" class="cls-1" data-name="Frame"/>
            <path id="icon_scooter_v3.1-2" d="M75.625 59.022v.051a2.655 2.655 0 0 1-.557-.507c0 .051 0 .1-.051.1a3.909 3.909 0 0 1-.608 1.773 2.942 2.942 0 0 1-1.469 1.115 4.426 4.426 0 0 1-1.115.253 4.22 4.22 0 0 1-1.115-.152 4.768 4.768 0 0 1-1.115-.608 3.088 3.088 0 0 1-.912-1.216c-.051-.1-.152-.2-.253-.152H50.951a.55.55 0 0 1-.456-.2c-.3-.405-.608-.811-.912-1.165a.361.361 0 0 0-.3-.152.457.457 0 0 1-.253-.051.162.162 0 0 1-.152-.152c0-.051 0-.051.051-.1a.451.451 0 0 1 .405-.253h.507c-.051-.1-.1-.152-.1-.2-.456-.557-.861-1.115-1.317-1.672-.355-.456-.76-.963-1.115-1.419l-.152-.152c0 .051-.051.051-.051.1 0 .1-.051.2-.051.3-.051.2-.051.405-.1.608a.244.244 0 0 0 .1.3 3.654 3.654 0 0 1 1.064 1.267 3.522 3.522 0 0 1 .456 2.027v.051c0 .051 0 .1-.051.1s-.051 0-.1-.051l-.1-.1a1.8 1.8 0 0 1-.2-.456 9.855 9.855 0 0 0-.405-1.115 2.839 2.839 0 0 0-.811-1.064c-.051-.051-.1-.051-.152-.1-.1.051-.051.1 0 .152.1.051.152.152.253.2a3.869 3.869 0 0 1 .76 1.165 2.646 2.646 0 0 1 .2 1.064 3.857 3.857 0 0 1-.152 1.064 3.009 3.009 0 0 1-.917 1.475 3.35 3.35 0 0 1-2.533.912 3.075 3.075 0 0 1-1.317-.405 2.986 2.986 0 0 1-1.216-1.165 3.167 3.167 0 0 1-.456-2.027 3.4 3.4 0 0 1 2.584-2.989c.152-.051.152-.051.152-.2h-.1a1.821 1.821 0 0 0-.557.1c-.051 0-.152.051-.2.051a.859.859 0 0 1-.507 0c-.051 0-.1-.051-.152-.051.051-.051.1-.1.152-.1a3.909 3.909 0 0 1 1.267-.507h.152a.162.162 0 0 0 .152-.152 9.857 9.857 0 0 0 .405-1.115v-.051c.1-.1.051-.2.051-.355a.05.05 0 0 0-.051-.051c0-.051-.051-.051-.051-.1a.492.492 0 0 1-.051-.456c.2-.709.355-1.419.507-2.128a.8.8 0 0 1 .405-.507c.051 0 .051-.051.1-.1a.4.4 0 0 1 .2-.2.427.427 0 0 0 .2-.355.186.186 0 0 1 .051-.152c.1-.456.253-.912.355-1.419a.465.465 0 0 1 .2-.3.738.738 0 0 0 .3-.456c.608-2.331 1.216-4.661 1.824-7.043l1.824-7.3a.383.383 0 0 1 .051-.2h-.1a1.067 1.067 0 0 1-.659-.253 5.382 5.382 0 0 1-.557-.456 2.873 2.873 0 0 0-.659-.405.384.384 0 0 0-.2-.1.536.536 0 0 1-.3-.355q0-.076-.152-.152a.506.506 0 0 1-.253-.2c-.051-.051-.051-.051-.1-.051h-.2c-.1 0-.152 0-.2-.152 0-.1 0-.152.1-.2a1.8 1.8 0 0 1 .507-.1h.3c.1-.051.253-.1.355-.152s.1-.152.1-.253c.051-.2.1-.405.152-.557.051-.1.051-.1.152-.1a.3.3 0 0 0 .2-.051.492.492 0 0 1 .709.051l.051.051a.7.7 0 0 0 .405.253c.659.152 1.267.3 1.925.456.1 0 .152.051.253.051.2.051.2.051.152.253l-.152.76c-.1.355-.152.709-.253 1.064v.405c-.152.608-.3 1.216-.456 1.773-.355 1.368-.659 2.685-1.013 4.053a.3.3 0 0 1-.051.2c.2.1.2.1.3-.1 0-.051.051-.051.051-.1s.051-.1.1-.051.051.051.051.1a.72.72 0 0 0-.1.3 1.107 1.107 0 0 1-.152.253c-.1.1-.2 0-.3 0H50.6c0 .051-.051.1-.051.152-.3 1.267-.659 2.533-.963 3.8-.405 1.571-.76 3.091-1.115 4.661a.6.6 0 0 0 .051.507.988.988 0 0 1 .051.405c-.152.456-.253.963-.405 1.419a.72.72 0 0 0-.1.3c0 .1 0 .152.051.2a.335.335 0 0 1 .051.3l-.3 1.216a.445.445 0 0 0 .051.355c1.317 1.621 2.584 3.293 3.9 4.915.152.2.355.456.507.659a.384.384 0 0 0 .2.1h13.521a.575.575 0 0 0 .405-.152 1.06 1.06 0 0 1 .3-.2l.456-.152a1.437 1.437 0 0 0 .557-.405.909.909 0 0 0 .253-.355l.152-.152.051-.051c0-.152.1-.2.2-.253a.788.788 0 0 1 .405-.3c.051 0 .051-.051.1-.051a.817.817 0 0 1 .355-.2.967.967 0 0 1 .405-.152h.051a1.415 1.415 0 0 1 .912-.3 4.5 4.5 0 0 1 3.395.861 3.971 3.971 0 0 1 1.216 1.672 10.112 10.112 0 0 1 .456 1.773c-.093-.164-.093-.114-.093-.114zM50.7 31.764c0-.1.051-.152.051-.253a.134.134 0 0 1 .152-.152c.051 0 .051 0 .051-.051A.876.876 0 0 0 51 30.8c-.051-.152-.2-.2-.3-.253s-.152.051-.2.1a.417.417 0 0 1-.608.051c-.051-.051-.1-.1-.152-.1a1.343 1.343 0 0 1-.3-.253l-.1-.1a2.543 2.543 0 0 0-.608-.1.05.05 0 0 0-.051.051c-.1.051-.2.152-.3.2-.1 0-.1.051-.1.1.051.051.051.1.1.152a1.107 1.107 0 0 0 .253.152c.253.152.507.3.709.456l.608.456a.817.817 0 0 0 .456.152c.24.052.24.052.293-.1zM70.559 57.6c.051-.051.152-.152.152-.2-.051-.051-.051-.1-.1-.1-.051.051-.051.152-.051.3zm.152.152c0-.051 0-.051-.051-.051s-.051 0-.051.051c-.051.051.1.051.1 0zm.1-.1c0-.051 0-.051-.051-.051s-.051 0-.051.051 0 .051.051.051l.051-.051zm.051-.1zm0-.253l.1-.051V57.2l-.051-.1h-.051l-.1.051v.049l.051.1s0 .051.051 0zm.1.1c0 .051 0 .051.051.051s.051 0 .051-.051 0-.051-.051-.051-.051 0-.051.051zm.051.405l-.051-.1-.1.1h.152zm.1-.051v-.2l-.1.051.1.152zm.051-.709l-.1-.051v-.051l-.1.051.1.152.1-.1zm.2-1.824a.539.539 0 0 0-.608.1z" class="cls-4" transform="translate(-40.767 -27.457)"/>
        </g>
    </g>
</svg>
